<<<<<<< Updated upstream
<<<<<<< HEAD
m_EditorVersion: 2017.3.0f3
=======
m_EditorVersion: 2017.3.1f1
>>>>>>> 8e8a50a8497d72d3f2e904aaf990851e545e1f3f
=======
m_EditorVersion: 2017.3.0f3
>>>>>>> Stashed changes
